<?xml version="1.0" encoding="utf-8"?>
<!DOCTYPE eagle SYSTEM "eagle.dtd">
<eagle version="6.1">
<drawing>
<settings>
<setting alwaysvectorfont="no"/>
<setting verticaltext="up"/>
</settings>
<grid distance="0.01" unitdist="inch" unit="inch" style="lines" multiple="1" display="no" altdistance="0.0005" altunitdist="inch" altunit="inch"/>
<layers>
<layer number="1" name="Top" color="4" fill="1" visible="yes" active="yes"/>
<layer number="16" name="Bottom" color="1" fill="1" visible="yes" active="yes"/>
<layer number="17" name="Pads" color="2" fill="1" visible="yes" active="yes"/>
<layer number="18" name="Vias" color="2" fill="1" visible="yes" active="yes"/>
<layer number="19" name="Unrouted" color="6" fill="1" visible="yes" active="yes"/>
<layer number="20" name="Dimension" color="15" fill="1" visible="yes" active="yes"/>
<layer number="21" name="tPlace" color="7" fill="1" visible="yes" active="yes"/>
<layer number="22" name="bPlace" color="7" fill="1" visible="yes" active="yes"/>
<layer number="23" name="tOrigins" color="15" fill="1" visible="yes" active="yes"/>
<layer number="24" name="bOrigins" color="15" fill="1" visible="yes" active="yes"/>
<layer number="25" name="tNames" color="7" fill="1" visible="yes" active="yes"/>
<layer number="26" name="bNames" color="7" fill="1" visible="yes" active="yes"/>
<layer number="27" name="tValues" color="7" fill="1" visible="yes" active="yes"/>
<layer number="28" name="bValues" color="7" fill="1" visible="yes" active="yes"/>
<layer number="29" name="tStop" color="7" fill="3" visible="no" active="yes"/>
<layer number="30" name="bStop" color="7" fill="6" visible="no" active="yes"/>
<layer number="31" name="tCream" color="7" fill="4" visible="no" active="yes"/>
<layer number="32" name="bCream" color="7" fill="5" visible="no" active="yes"/>
<layer number="33" name="tFinish" color="6" fill="3" visible="no" active="yes"/>
<layer number="34" name="bFinish" color="6" fill="6" visible="no" active="yes"/>
<layer number="35" name="tGlue" color="7" fill="4" visible="no" active="yes"/>
<layer number="36" name="bGlue" color="7" fill="5" visible="no" active="yes"/>
<layer number="37" name="tTest" color="7" fill="1" visible="no" active="yes"/>
<layer number="38" name="bTest" color="7" fill="1" visible="no" active="yes"/>
<layer number="39" name="tKeepout" color="4" fill="11" visible="yes" active="yes"/>
<layer number="40" name="bKeepout" color="1" fill="11" visible="yes" active="yes"/>
<layer number="41" name="tRestrict" color="4" fill="10" visible="yes" active="yes"/>
<layer number="42" name="bRestrict" color="1" fill="10" visible="yes" active="yes"/>
<layer number="43" name="vRestrict" color="2" fill="10" visible="yes" active="yes"/>
<layer number="44" name="Drills" color="7" fill="1" visible="no" active="yes"/>
<layer number="45" name="Holes" color="7" fill="1" visible="no" active="yes"/>
<layer number="46" name="Milling" color="3" fill="1" visible="no" active="yes"/>
<layer number="47" name="Measures" color="7" fill="1" visible="no" active="yes"/>
<layer number="48" name="Document" color="7" fill="1" visible="yes" active="yes"/>
<layer number="49" name="Reference" color="7" fill="1" visible="yes" active="yes"/>
<layer number="51" name="tDocu" color="7" fill="1" visible="yes" active="yes"/>
<layer number="52" name="bDocu" color="7" fill="1" visible="yes" active="yes"/>
<layer number="53" name="tGND_GNDA" color="7" fill="9" visible="no" active="no"/>
<layer number="54" name="bGND_GNDA" color="1" fill="9" visible="no" active="no"/>
<layer number="91" name="Nets" color="2" fill="1" visible="no" active="no"/>
<layer number="92" name="Busses" color="1" fill="1" visible="no" active="no"/>
<layer number="93" name="Pins" color="2" fill="1" visible="no" active="no"/>
<layer number="94" name="Symbols" color="4" fill="1" visible="no" active="no"/>
<layer number="95" name="Names" color="7" fill="1" visible="no" active="no"/>
<layer number="96" name="Values" color="7" fill="1" visible="no" active="no"/>
<layer number="97" name="Info" color="7" fill="1" visible="no" active="no"/>
<layer number="98" name="Guide" color="6" fill="1" visible="no" active="no"/>
</layers>
<board>
<plain>
<wire x1="0" y1="0" x2="100" y2="0" width="0" layer="20"/>
<wire x1="100" y1="0" x2="100" y2="80" width="0" layer="20"/>
<wire x1="100" y1="80" x2="0" y2="80" width="0" layer="20"/>
<wire x1="0" y1="80" x2="0" y2="0" width="0" layer="20"/>
<wire x1="1.524" y1="0.762" x2="1.524" y2="9.652" width="0.3048" layer="21"/>
<wire x1="1.524" y1="9.652" x2="8.382" y2="9.652" width="0.3048" layer="21"/>
<wire x1="8.382" y1="9.652" x2="8.382" y2="0.762" width="0.3048" layer="21"/>
<wire x1="8.382" y1="0.762" x2="1.524" y2="0.762" width="0.3048" layer="21"/>
<text x="3.302" y="4.318" size="1.778" layer="26" rot="MR180">6G</text>
<text x="4.318" y="7.366" size="1.016" layer="26" font="vector" rot="MR180">X</text>
<text x="5.588" y="7.366" size="1.016" layer="26" font="vector" rot="MR180">Y</text>
<text x="6.858" y="7.366" size="1.016" layer="26" font="vector" rot="MR180">Z</text>
<text x="2.794" y="7.366" size="1.016" layer="26" font="vector" rot="MR180">G</text>
<text x="1.524" y="7.366" size="1.016" layer="26" font="vector" rot="MR180">V</text>
</plain>
<libraries>
<library name="rcl">
<packages>
<package name="C0402">
<description>&lt;b&gt;CAPACITOR&lt;/b&gt;</description>
<wire x1="-0.245" y1="0.224" x2="0.245" y2="0.224" width="0.1524" layer="51"/>
<wire x1="0.245" y1="-0.224" x2="-0.245" y2="-0.224" width="0.1524" layer="51"/>
<wire x1="-1.073" y1="0.383" x2="1.073" y2="0.383" width="0.0508" layer="39"/>
<wire x1="1.073" y1="0.383" x2="1.073" y2="-0.383" width="0.0508" layer="39"/>
<wire x1="1.073" y1="-0.383" x2="-1.073" y2="-0.383" width="0.0508" layer="39"/>
<wire x1="-1.073" y1="-0.383" x2="-1.073" y2="0.383" width="0.0508" layer="39"/>
<smd name="1" x="-0.55" y="0" dx="0.5" dy="0.7" layer="1"/>
<smd name="2" x="0.55" y="0" dx="0.5" dy="0.7" layer="1"/>
<text x="-0.635" y="0.635" size="1.27" layer="25">&gt;NAME</text>
<text x="-0.635" y="-1.905" size="1.27" layer="27">&gt;VALUE</text>
<rectangle x1="-0.554" y1="-0.3048" x2="-0.254" y2="0.2951" layer="51"/>
<rectangle x1="0.2588" y1="-0.3048" x2="0.5588" y2="0.2951" layer="51"/>
<rectangle x1="-0.1999" y1="-0.3" x2="0.1999" y2="0.3" layer="35"/>
</package>
</packages>
</library>
<library name="paul_martin_custom">
<packages>
<package name="LGA16L">
<description>LGA 16L: 4x4x1.5mm Land Grid Array Package</description>
<wire x1="-2" y1="2" x2="-2" y2="-2" width="0.127" layer="21"/>
<wire x1="2" y1="-2" x2="-2" y2="-2" width="0.127" layer="21"/>
<wire x1="-2" y1="2" x2="2" y2="2" width="0.127" layer="21"/>
<wire x1="2" y1="2" x2="2" y2="-2" width="0.127" layer="21"/>
<circle x="-1.6" y="1.6" radius="0.145" width="0.127" layer="21"/>
<smd name="FS" x="-1.7" y="0.975" dx="0.4" dy="0.3" layer="1"/>
<smd name="ST" x="-1.7" y="0.325" dx="0.4" dy="0.3" layer="1"/>
<smd name="NC1" x="-1.7" y="-0.325" dx="0.4" dy="0.3" layer="1"/>
<smd name="RES1" x="-1.7" y="-0.975" dx="0.4" dy="0.3" layer="1"/>
<smd name="VOUTX" x="1.7" y="0.975" dx="0.4" dy="0.3" layer="1"/>
<smd name="NC4" x="1.7" y="0.325" dx="0.4" dy="0.3" layer="1"/>
<smd name="VOUTY" x="1.7" y="-0.325" dx="0.4" dy="0.3" layer="1"/>
<smd name="NC3" x="1.7" y="-0.975" dx="0.4" dy="0.3" layer="1"/>
<smd name="NC6" x="-0.975" y="1.7" dx="0.3" dy="0.4" layer="1"/>
<smd name="RES2" x="-0.325" y="1.7" dx="0.3" dy="0.4" layer="1"/>
<smd name="VDD" x="0.325" y="1.7" dx="0.3" dy="0.4" layer="1"/>
<smd name="NC5" x="0.975" y="1.7" dx="0.3" dy="0.4" layer="1"/>
<smd name="PD" x="-0.975" y="-1.7" dx="0.3" dy="0.4" layer="1"/>
<smd name="NC2" x="-0.325" y="-1.7" dx="0.3" dy="0.4" layer="1"/>
<smd name="GND" x="0.325" y="-1.7" dx="0.3" dy="0.4" layer="1"/>
<smd name="VOUTZ" x="0.975" y="-1.7" dx="0.3" dy="0.4" layer="1"/>
<text x="-1.865" y="2.3" size="0.5" layer="25">&gt;NAME</text>
<text x="-2.015" y="-2.685" size="0.5" layer="27">&gt;VALUE</text>
</package>
</packages>
</library>
<library name="con-molex">
<packages>
<package name="53047-05">
<description>&lt;b&gt;CONNECTOR&lt;/b&gt;&lt;p&gt;
wire to board 1.25 mm (.049 inch) pitch header&lt;p&gt;
straight&lt;br&gt;
Sourcxe: http://www.molex.com/pdm_docs/sd/530470210_sd.pdf</description>
<wire x1="-3.9" y1="-1.5" x2="3.9" y2="-1.5" width="0.2032" layer="21"/>
<wire x1="3.9" y1="-1.5" x2="3.9" y2="1.5" width="0.2032" layer="21"/>
<wire x1="3.9" y1="1.5" x2="-3.9" y2="1.5" width="0.2032" layer="21"/>
<wire x1="-3.9" y1="1.5" x2="-3.9" y2="-1.5" width="0.2032" layer="21"/>
<wire x1="-3.875" y1="-0.25" x2="-3.5" y2="-0.25" width="0.0508" layer="21"/>
<wire x1="-3.5" y1="-0.25" x2="-3.5" y2="-1.25" width="0.0508" layer="21"/>
<wire x1="3.5" y1="-0.25" x2="3.875" y2="-0.25" width="0.0508" layer="21"/>
<wire x1="3.5" y1="-0.25" x2="3.5" y2="-1.25" width="0.0508" layer="21"/>
<wire x1="-3.875" y1="0.375" x2="-3.5" y2="0.375" width="0.0508" layer="21"/>
<wire x1="3.5" y1="0.375" x2="3.875" y2="0.375" width="0.0508" layer="21"/>
<wire x1="-3.5" y1="0.375" x2="-3.5" y2="1.125" width="0.0508" layer="21"/>
<wire x1="-3.5" y1="1.125" x2="3.5" y2="1.125" width="0.0508" layer="21"/>
<wire x1="3.5" y1="1.125" x2="3.5" y2="0.375" width="0.0508" layer="21"/>
<wire x1="3.5" y1="1.125" x2="3.75" y2="1.375" width="0.0508" layer="21"/>
<wire x1="-3.5" y1="1.125" x2="-3.75" y2="1.375" width="0.0508" layer="21"/>
<pad name="1" x="2.5" y="0.45" drill="0.5" diameter="0.6984" shape="long" rot="R90"/>
<pad name="2" x="1.25" y="0.45" drill="0.5" diameter="0.6984" shape="long" rot="R90"/>
<pad name="3" x="0" y="0.45" drill="0.5" diameter="0.6984" shape="long" rot="R90"/>
<pad name="4" x="-1.25" y="0.45" drill="0.5" diameter="0.6984" shape="long" rot="R90"/>
<pad name="5" x="-2.5" y="0.45" drill="0.5" diameter="0.6984" shape="long" rot="R90"/>
<text x="-3.75" y="1.75" size="1.27" layer="25">&gt;NAME</text>
<text x="-3.25" y="-3.25" size="1.27" layer="27">&gt;VALUE</text>
<rectangle x1="-3.875" y1="-1.5" x2="3.875" y2="-1.125" layer="21"/>
</package>
</packages>
</library>
</libraries>
<attributes>
</attributes>
<variantdefs>
</variantdefs>
<classes>
<class number="0" name="default" width="0" drill="0">
</class>
</classes>
<designrules>
<description language="de">&lt;b&gt;EAGLE Design Rules&lt;/b&gt;
&lt;p&gt;
Die Standard-Design-Rules sind so gewählt, dass sie für 
die meisten Anwendungen passen. Sollte ihre Platine 
besondere Anforderungen haben, treffen Sie die erforderlichen
Einstellungen hier und speichern die Design Rules unter 
einem neuen Namen ab.</description>
<description language="en">&lt;b&gt;EAGLE Design Rules&lt;/b&gt;
&lt;p&gt;
The default Design Rules have been set to cover
a wide range of applications. Your particular design
may have different requirements, so please make the
necessary adjustments and save your customized
design rules under a new name.</description>
<param name="layerSetup" value="(1*16)"/>
<param name="mtCopper" value="0.035mm 0.035mm 0.035mm 0.035mm 0.035mm 0.035mm 0.035mm 0.035mm 0.035mm 0.035mm 0.035mm 0.035mm 0.035mm 0.035mm 0.035mm 0.035mm"/>
<param name="mtIsolate" value="1.5mm 0.15mm 0.2mm 0.15mm 0.2mm 0.15mm 0.2mm 0.15mm 0.2mm 0.15mm 0.2mm 0.15mm 0.2mm 0.15mm 0.2mm"/>
<param name="mdWireWire" value="8mil"/>
<param name="mdWirePad" value="8mil"/>
<param name="mdWireVia" value="8mil"/>
<param name="mdPadPad" value="8mil"/>
<param name="mdPadVia" value="8mil"/>
<param name="mdViaVia" value="8mil"/>
<param name="mdSmdPad" value="8mil"/>
<param name="mdSmdVia" value="8mil"/>
<param name="mdSmdSmd" value="8mil"/>
<param name="mdViaViaSameLayer" value="8mil"/>
<param name="mnLayersViaInSmd" value="2"/>
<param name="mdCopperDimension" value="40mil"/>
<param name="mdDrill" value="8mil"/>
<param name="mdSmdStop" value="0mil"/>
<param name="msWidth" value="10mil"/>
<param name="msDrill" value="24mil"/>
<param name="msMicroVia" value="9.99mm"/>
<param name="msBlindViaRatio" value="0.5"/>
<param name="rvPadTop" value="0.25"/>
<param name="rvPadInner" value="0.25"/>
<param name="rvPadBottom" value="0.25"/>
<param name="rvViaOuter" value="0.25"/>
<param name="rvViaInner" value="0.25"/>
<param name="rvMicroViaOuter" value="0.25"/>
<param name="rvMicroViaInner" value="0.25"/>
<param name="rlMinPadTop" value="10mil"/>
<param name="rlMaxPadTop" value="20mil"/>
<param name="rlMinPadInner" value="10mil"/>
<param name="rlMaxPadInner" value="20mil"/>
<param name="rlMinPadBottom" value="10mil"/>
<param name="rlMaxPadBottom" value="20mil"/>
<param name="rlMinViaOuter" value="8mil"/>
<param name="rlMaxViaOuter" value="20mil"/>
<param name="rlMinViaInner" value="8mil"/>
<param name="rlMaxViaInner" value="20mil"/>
<param name="rlMinMicroViaOuter" value="4mil"/>
<param name="rlMaxMicroViaOuter" value="20mil"/>
<param name="rlMinMicroViaInner" value="4mil"/>
<param name="rlMaxMicroViaInner" value="20mil"/>
<param name="psTop" value="-1"/>
<param name="psBottom" value="-1"/>
<param name="psFirst" value="-1"/>
<param name="psElongationLong" value="100"/>
<param name="psElongationOffset" value="100"/>
<param name="mvStopFrame" value="1"/>
<param name="mvCreamFrame" value="0"/>
<param name="mlMinStopFrame" value="4mil"/>
<param name="mlMaxStopFrame" value="4mil"/>
<param name="mlMinCreamFrame" value="0mil"/>
<param name="mlMaxCreamFrame" value="0mil"/>
<param name="mlViaStopLimit" value="0mil"/>
<param name="srRoundness" value="0"/>
<param name="srMinRoundness" value="0mil"/>
<param name="srMaxRoundness" value="0mil"/>
<param name="slThermalIsolate" value="10mil"/>
<param name="slThermalsForVias" value="0"/>
<param name="dpMaxLengthDifference" value="10mm"/>
<param name="dpGapFactor" value="2.5"/>
<param name="checkGrid" value="0"/>
<param name="checkAngle" value="0"/>
<param name="checkFont" value="1"/>
<param name="checkRestrict" value="1"/>
<param name="useDiameter" value="13"/>
<param name="maxErrors" value="50"/>
</designrules>
<autorouter>
<pass name="Default">
<param name="RoutingGrid" value="10mil"/>
<param name="tpViaShape" value="round"/>
<param name="PrefDir.1" value="|"/>
<param name="PrefDir.2" value="0"/>
<param name="PrefDir.3" value="0"/>
<param name="PrefDir.4" value="0"/>
<param name="PrefDir.5" value="0"/>
<param name="PrefDir.6" value="0"/>
<param name="PrefDir.7" value="0"/>
<param name="PrefDir.8" value="0"/>
<param name="PrefDir.9" value="0"/>
<param name="PrefDir.10" value="0"/>
<param name="PrefDir.11" value="0"/>
<param name="PrefDir.12" value="0"/>
<param name="PrefDir.13" value="0"/>
<param name="PrefDir.14" value="0"/>
<param name="PrefDir.15" value="0"/>
<param name="PrefDir.16" value="-"/>
<param name="cfVia" value="8"/>
<param name="cfNonPref" value="5"/>
<param name="cfChangeDir" value="2"/>
<param name="cfOrthStep" value="2"/>
<param name="cfDiagStep" value="3"/>
<param name="cfExtdStep" value="0"/>
<param name="cfBonusStep" value="1"/>
<param name="cfMalusStep" value="1"/>
<param name="cfPadImpact" value="4"/>
<param name="cfSmdImpact" value="4"/>
<param name="cfBusImpact" value="0"/>
<param name="cfHugging" value="3"/>
<param name="cfAvoid" value="4"/>
<param name="cfPolygon" value="10"/>
<param name="cfBase.1" value="0"/>
<param name="cfBase.2" value="1"/>
<param name="cfBase.3" value="1"/>
<param name="cfBase.4" value="1"/>
<param name="cfBase.5" value="1"/>
<param name="cfBase.6" value="1"/>
<param name="cfBase.7" value="1"/>
<param name="cfBase.8" value="1"/>
<param name="cfBase.9" value="1"/>
<param name="cfBase.10" value="1"/>
<param name="cfBase.11" value="1"/>
<param name="cfBase.12" value="1"/>
<param name="cfBase.13" value="1"/>
<param name="cfBase.14" value="1"/>
<param name="cfBase.15" value="1"/>
<param name="cfBase.16" value="0"/>
<param name="mnVias" value="20"/>
<param name="mnSegments" value="9999"/>
<param name="mnExtdSteps" value="9999"/>
<param name="mnRipupLevel" value="10"/>
<param name="mnRipupSteps" value="100"/>
<param name="mnRipupTotal" value="100"/>
</pass>
<pass name="Follow-me" refer="Default" active="yes">
</pass>
<pass name="Busses" refer="Default" active="yes">
<param name="cfNonPref" value="4"/>
<param name="cfBusImpact" value="4"/>
<param name="cfHugging" value="0"/>
<param name="mnVias" value="0"/>
</pass>
<pass name="Route" refer="Default" active="yes">
</pass>
<pass name="Optimize1" refer="Default" active="yes">
<param name="cfVia" value="99"/>
<param name="cfExtdStep" value="10"/>
<param name="cfHugging" value="1"/>
<param name="mnExtdSteps" value="1"/>
<param name="mnRipupLevel" value="0"/>
</pass>
<pass name="Optimize2" refer="Optimize1" active="yes">
<param name="cfNonPref" value="0"/>
<param name="cfChangeDir" value="6"/>
<param name="cfExtdStep" value="0"/>
<param name="cfBonusStep" value="2"/>
<param name="cfMalusStep" value="2"/>
<param name="cfPadImpact" value="2"/>
<param name="cfSmdImpact" value="2"/>
<param name="cfHugging" value="0"/>
</pass>
<pass name="Optimize3" refer="Optimize2" active="yes">
<param name="cfChangeDir" value="8"/>
<param name="cfPadImpact" value="0"/>
<param name="cfSmdImpact" value="0"/>
</pass>
<pass name="Optimize4" refer="Optimize3" active="yes">
<param name="cfChangeDir" value="25"/>
</pass>
</autorouter>
<elements>
<element name="C1" library="rcl" package="C0402" value="0.1uF" x="2.032" y="2.54" smashed="yes" rot="R270"/>
<element name="GND" library="paul_martin_custom" package="LGA16L" value="LIS344ALH" x="5.02855625" y="3.506203125" smashed="yes" rot="R90"/>
<element name="C4" library="rcl" package="C0402" value="3n" x="3.81906875" y="6.133659375" smashed="yes" rot="R180"/>
<element name="C5" library="rcl" package="C0402" value="3n" x="6.216396875" y="6.139684375" smashed="yes"/>
<element name="C6" library="rcl" package="C0402" value="3n" x="7.906678125" y="3.88995625" smashed="yes" rot="R270"/>
<element name="X2" library="con-molex" package="53047-05" value="53047-05" x="4.826" y="8.89" smashed="yes" rot="R180"/>
</elements>
<signals>
<signal name="GND">
<contactref element="C1" pad="2"/>
<contactref element="GND" pad="GND"/>
<contactref element="GND" pad="PD"/>
<contactref element="GND" pad="ST"/>
<contactref element="C4" pad="2"/>
<contactref element="C5" pad="2"/>
<contactref element="C6" pad="2"/>
<contactref element="X2" pad="2"/>
<polygon width="0.254" layer="1">
<vertex x="8.128" y="1.016"/>
<vertex x="1.778" y="1.016"/>
<vertex x="1.778" y="8.636"/>
<vertex x="8.128" y="8.636"/>
</polygon>
<polygon width="0.4064" layer="16">
<vertex x="2.032" y="1.524"/>
<vertex x="8.128" y="1.524"/>
<vertex x="8.128" y="8.382"/>
<vertex x="2.032" y="8.382"/>
</polygon>
<contactref element="GND" pad="NC3"/>
<contactref element="GND" pad="NC5"/>
</signal>
<signal name="V+">
<contactref element="C1" pad="1"/>
<contactref element="X2" pad="1"/>
<contactref element="GND" pad="RES2"/>
<contactref element="GND" pad="VDD"/>
<wire x1="3.302" y1="3.302" x2="3.302" y2="3.81" width="0.254" layer="1"/>
<wire x1="3.302" y1="3.81" x2="3.32855625" y2="3.831203125" width="0.254" layer="1"/>
<wire x1="1.778" y1="3.302" x2="3.302" y2="3.302" width="0.254" layer="1"/>
<wire x1="3.302" y1="3.302" x2="3.32855625" y2="3.181203125" width="0.254" layer="1"/>
<wire x1="1.778" y1="8.636" x2="1.778" y2="3.302" width="0.254" layer="1"/>
<wire x1="1.778" y1="3.302" x2="2.032" y2="3.09" width="0.254" layer="1"/>
<wire x1="1.778" y1="8.636" x2="2.326" y2="8.44" width="0.254" layer="1"/>
<contactref element="GND" pad="FS"/>
<wire x1="4.064" y1="3.302" x2="4.064" y2="1.778" width="0.254" layer="1"/>
<wire x1="3.302" y1="3.302" x2="4.064" y2="3.302" width="0.254" layer="1"/>
<wire x1="4.064" y1="1.778" x2="4.05355625" y2="1.806203125" width="0.254" layer="1"/>
</signal>
<signal name="OUT_X">
<contactref element="X2" pad="3"/>
<contactref element="GND" pad="VOUTX"/>
<contactref element="C4" pad="1"/>
<wire x1="4.826" y1="8.44" x2="4.826" y2="6.858" width="0.254" layer="1"/>
<wire x1="4.826" y1="6.858" x2="4.36906875" y2="6.133659375" width="0.254" layer="1"/>
<wire x1="4.064" y1="5.842" x2="4.064" y2="5.334" width="0.254" layer="1"/>
<wire x1="4.318" y1="6.096" x2="4.064" y2="5.842" width="0.254" layer="1"/>
<wire x1="4.064" y1="5.334" x2="4.05355625" y2="5.206203125" width="0.254" layer="1"/>
<wire x1="4.318" y1="6.096" x2="4.36906875" y2="6.133659375" width="0.254" layer="1"/>
</signal>
<signal name="OUT_Y">
<contactref element="X2" pad="4"/>
<contactref element="GND" pad="VOUTY"/>
<contactref element="C5" pad="1"/>
<wire x1="5.334" y1="6.35" x2="5.334" y2="5.334" width="0.254" layer="1"/>
<wire x1="5.588" y1="6.35" x2="5.334" y2="6.35" width="0.254" layer="1"/>
<wire x1="5.588" y1="6.35" x2="5.666396875" y2="6.139684375" width="0.254" layer="1"/>
<wire x1="5.842" y1="8.636" x2="5.842" y2="6.604" width="0.254" layer="1"/>
<wire x1="5.842" y1="6.604" x2="5.666396875" y2="6.139684375" width="0.254" layer="1"/>
<wire x1="5.842" y1="8.636" x2="6.076" y2="8.44" width="0.254" layer="1"/>
<wire x1="5.334" y1="5.334" x2="5.35355625" y2="5.206203125" width="0.254" layer="1"/>
</signal>
<signal name="OUT_Z">
<contactref element="X2" pad="5"/>
<contactref element="GND" pad="VOUTZ"/>
<contactref element="C6" pad="1"/>
<wire x1="7.112" y1="4.318" x2="6.858" y2="4.572" width="0.254" layer="1"/>
<wire x1="7.874" y1="4.318" x2="7.112" y2="4.318" width="0.254" layer="1"/>
<wire x1="6.858" y1="4.572" x2="6.72855625" y2="4.481203125" width="0.254" layer="1"/>
<wire x1="7.874" y1="4.318" x2="7.906678125" y2="4.43995625" width="0.254" layer="1"/>
<wire x1="8.128" y1="7.366" x2="8.128" y2="4.318" width="0.254" layer="1"/>
<wire x1="7.366" y1="8.636" x2="8.128" y2="7.366" width="0.254" layer="1"/>
<wire x1="8.128" y1="4.318" x2="7.906678125" y2="4.43995625" width="0.254" layer="1"/>
<wire x1="7.366" y1="8.636" x2="7.326" y2="8.44" width="0.254" layer="1"/>
</signal>
</signals>
<errors>
<approved hash="1,20,dc1e3bee35a6d256"/>
<approved hash="1,20,e419dce9d2a2ea52"/>
<approved hash="1,20,2219d3e9dda02c50"/>
<approved hash="1,20,e6185ae854a0e850"/>
<approved hash="1,20,80187be875a78e57"/>
</errors>
</board>
</drawing>
</eagle>
